135911 854679 525
847560 687351 525
94838 94373 315
648631 651373 385
949281 826718 525
604388 310211 470
547922 773985 509
347498 763387 509
860970 555435 525
56569 418929 449
152980 311863 443
482503 102378 449
529122 313446 470
759633 435070 509
667115 20666 509
57687 401882 443
45121 202312 383
854575 611954 525
683903 821330 504
396476 424775 449
349041 901923 525
237894 393153 441
174707 438179 449
680327 479688 509
608962 815846 509
112752 447903 449
898357 282806 525
18990 721191 509
807629 27691 509
205437 588336 470
533056 984251 525
947949 798487 525
581002 301703 470
224954 621242 470
826944 433896 509
638339 201335 509
299108 357563 441
409902 117802 443
935178 267030 525
104561 383487 443
405467 378774 436
95276 975797 525
653434 637521 416
581251 982987 525
123389 425456 449
531221 28782 470
957032 624831 525
362492 902019 525
48400 239719 443
564588 131810 470
756503 988141 525
942935 159097 525
25702 106010 351
973692 759038 525
284434 835183 509
996063 672721 525
455959 487547 444
154277 965728 525
121790 673593 509
918302 924952 445
721541 650301 504
957662 445086 525
547231 186145 470
683460 558912 509
178997 276931 443
53604 623239 470
358313 96507 443
645247 599825 509
165171 93754 383
215309 892634 525
640189 652137 416
877419 391592 525
102198 244358 443
448560 430748 400
303004 251094 407
131762 702883 509
637103 544146 509
309735 176697 443
848871 789034 525
727061 338007 509
259132 743460 509
543966 829359 509
589777 888902 525
579794 929098 525
690786 513198 509
578471 703713 509
190388 851550 525
993821 195454 525
812820 368422 509
453282 701511 509
531612 907660 525
511465 373505 449
72388 73173 294
736162 205175 509
983394 158896 525
918950 620205 525
613112 353223 470
679348 798398 504
578063 968635 525
150673 999708 525
402523 284031 441
886942 449625 525
130401 102349 354
466267 472756 413
770530 413235 509
243996 772062 509
376851 894364 525
678144 517550 509
459223 392191 449
266532 490109 449
775798 81633 509
475446 644573 509
232084 794555 509
875754 193410 525
74408 424298 449
692048 351621 509
735465 279348 509
985461 159000 525
840043 805997 525
547317 298507 470
614154 767250 509
451687 553221 470
988116 174377 525
185088 122042 383
788679 444769 509
768851 281891 509
991794 875671 507
17269 612408 470
251876 759975 509
321171 703335 509
452443 571811 470
57863 42974 340
301547 330958 384
847504 65234 525
723439 922823 525
520324 445633 470
752036 117431 509
681368 891035 525
604149 9502 470
5240 669182 509
297718 484656 449
135973 598226 470
591560 726403 509
307823 557905 470
841038 390023 525
618263 746237 509
100505 480342 449
960149 149781 525
965909 481040 525
807259 467406 509
965733 370298 525
289285 32709 443
980816 226295 525
295555 259657 407
621791 479362 470
174084 675896 509
857363 129850 525
334728 770070 509
70594 782185 509
600583 596284 372
831314 591916 509
803385 379452 509
362533 684765 509
371667 886091 525
205703 625093 470
961528 79314 525
542299 94221 470
299104 898978 525
722416 37373 509
409118 18220 443
90210 177288 383
243184 183822 443
655589 729970 504
624435 182642 470
432268 173445 449
806134 821182 450
250997 161875 443
619637 583611 447
412787 233902 449
476639 588429 470
776135 707625 468
900095 248886 525
453416 78190 449
209637 309279 443
982002 513737 525
821789 175272 509
201844 595194 470
510994 669987 509
781071 635232 504
491249 638228 509
734054 301727 509
446868 853329 525
595979 975682 525
29524 726221 509
483617 583315 470
48990 897979 525
145831 36248 375
975385 161028 525
9866 759819 509
436776 687454 509
863294 942391 507
958856 970388 414
985341 825814 525
316628 766928 509
554118 644959 509
397820 217526 443
839654 594347 525
315948 728809 509
258415 922405 525
524451 568305 452
461248 946862 525
137512 573281 470
466734 701310 509
118236 260254 443
737461 377861 509
686876 596313 509
170668 183626 365
372501 460916 449
67490 55824 335
53229 426152 449
5416 346621 443
292717 614150 470
839986 523321 525
213008 466236 449
922843 895623 476
866859 192996 525
