375031 36858 443
885521 146500 525
571496 966876 525
467355 17629 449
923652 965068 507
568790 315288 470
541439 908683 525
53728 967740 525
128690 78793 354
442577 653338 509
147431 357302 443
656615 247645 509
533339 246183 470
619009 667710 509
984622 432222 525
424326 743269 509
826479 364641 509
335292 292784 384
819731 352772 509
272648 308023 389
22226 26286 282
65344 161314 383
878433 270556 525
51670 767332 509
669166 866730 525
904370 948077 507
909653 886774 445
577183 722116 509
950341 970608 458
362835 141901 443
599550 6915 470
818167 631837 504
247876 383989 441
972507 744677 525
96152 620626 470
38501 296853 443
125848 77671 354
876149 56566 525
538817 943449 525
770368 789189 437
166435 118881 383
324053 752598 509
941006 792693 525
974052 340595 525
983238 820617 525
953186 497648 525
283776 854530 525
357181 628520 509
388257 373811 423
7975 626617 509
905315 41611 525
537009 269593 470
735838 213403 509
883071 154826 525
815308 289903 509
939982 384301 525
221448 819082 509
373708 981986 525
57933 461210 449
443425 338490 449
812219 990717 525
314005 365297 441
746338 546633 509
12077 76192 340
703060 48609 509
830411 738811 468
275989 174084 443
985210 992798 396
659227 192304 509
113072 522519 470
365565 254344 441
873487 1834 525
484428 172047 449
304672 209030 443
159302 245069 443
806224 905334 525
674348 562486 509
506789 545342 470
779197 632163 504
28466 674259 509
997626 84914 525
407012 47003 443
213887 165177 373
336817 438915 449
657315 113987 509
114856 58179 354
268240 830862 509
154283 584349 470
945565 538602 525
953469 499542 525
183445 902925 525
261050 905979 525
444571 488282 444
717896 111393 509
701409 531768 509
768299 915546 525
858173 6084 525
559614 744805 509
351172 300876 441
751531 630452 504
681100 684302 380
934534 686597 525
734252 608886 509
384924 56330 443
859075 325325 525
569666 657043 509
671485 341787 509
750457 388429 509
104809 606142 470
988964 658505 525
83369 25352 351
507665 487603 426
25980 489059 449
256649 988912 525
759891 377010 509
196372 235545 443
972426 906614 507
493445 181981 449
526221 434462 470
74793 403882 443
209177 349588 443
61010 710457 509
19555 844271 525
469410 855386 525
103470 367331 443
628663 175025 509
663501 921333 525
169582 127123 383
632144 916800 525
944431 164541 525
446387 587759 470
316312 225461 443
371264 261089 441
409995 578254 470
433238 234330 449
374360 661085 509
531773 56866 470
3449 20199 279
459960 777879 509
734049 947450 525
261031 864371 525
143820 540401 470
936937 105016 525
724421 851820 525
534013 985209 525
114695 591741 470
921570 847940 476
750508 275366 509
165647 210731 373
822295 713788 468
609089 285610 470
784107 72134 509
952253 453515 525
397563 306880 441
769153 988874 525
689869 53370 509
461539 126838 449
731094 966115 525
16653 90444 351
519512 890360 525
927466 850824 476
772028 829808 468
557648 519513 452
131056 703805 509
624486 825149 509
822634 955583 525
586564 837921 525
691249 365134 509
302759 409143 441
824038 571836 509
412719 377192 449
599444 796164 509
526939 451548 470
750286 311045 509
241764 614950 470
4701 258739 443
326097 476379 449
473783 941058 525
816577 846041 525
140768 153207 375
359676 566710 470
284758 362808 441
210306 601828 470
444201 548819 470
837912 108227 525
432946 307232 449
150789 275552 443
676356 159500 509
330982 858366 525
710219 617600 509
204460 97548 383
517684 483012 470
557124 46659 470
727855 959892 525
365229 502373 449
8398 751190 509
637776 230823 509
596562 820995 509
912406 410464 525
308359 94842 443
551357 211799 470
529313 354708 470
224122 814540 509
574703 631421 509
480725 313352 449
478190 951667 525
207788 672711 509
684051 396447 509
736437 613977 509
882154 753411 525
679299 781975 504
911891 81267 525
93171 155849 375
872229 652895 525
39763 127957 354
393839 895111 525
849624 128204 525
15102 652747 509
31842 950029 525
741381 973957 525
546749 698997 509
836776 891329 525
448096 206694 449
698309 995298 525
934204 930410 370
