22594 966418
512990 92231
147567 557486
359389 457396
870601 878392
600200 297538
385157 459097
663248 162229
760720 679138
730834 830969
326533 810444
18041 843588
14357 552873
938284 861511
185342 518888
836837 541988
424101 674958
765817 641229
258564 230634
385659 455830
301700 740684
463641 547234
941632 270973
249546 546317
322104 559460
412163 774818
778167 908026
961237 118246
975855 298188
83325 613044
750926 486624
534612 110581
949348 599824
914427 221710
148844 635040
332154 317434
335715 621127
300192 795746
766548 595968
425938 467553
402921 813570
923613 180153
368934 158685
866082 805778
367457 486910
132179 49277
41622 776994
320738 170653
446310 968454
625420 734611
122936 281898
990322 186134
318747 786713
755227 208061
516580 167233
821710 765521
279632 460140
217685 794225
856547 475557
979985 689975
638453 130304
468386 523138
527885 96996
161222 5645
26217 869843
471123 286290
80857 814329
879629 720008
496642 124318
353117 634854
494306 274861
94447 278519
728316 163969
103155 802081
893031 197896
577749 99378
149987 544119
927144 836140
634276 420620
81956 978891
963652 280890
613533 516897
547497 307061
141644 386666
478370 911164
68096 702384
772996 554199
876996 524863
364415 951334
85581 436608
229640 631454
168561 969157
310193 950699
656585 73807
926535 990969
820429 823833
287045 539135
456492 256762
906359 70643
475554 903876
151391 127105
112362 137044
371058 918174
658352 414373
946998 691453
46519 758854
275777 130213
245134 43061
586201 262448
341754 881962
430879 697822
664687 773851
247561 323086
355100 260760
204376 713813
154436 379822
622841 286980
49780 403884
759087 121230
744214 449525
938032 300785
67590 622921
192526 577520
552600 727794
870796 611279
62760 495518
5153 935540
993613 298527
709367 612841
652195 734933
367008 179458
805470 522235
485256 298440
250435 181729
784985 17461
978739 494456
478101 552954
202213 292646
891884 580200
921582 365572
586747 488988
345738 945019
656910 907782
284480 958511
972011 968860
657869 593942
368106 746644
852435 608357
885750 34139
993962 701175
834375 431887
849170 356551
135776 819797
119842 647871
409634 498892
361312 558238
374072 853000
173047 890398
84572 428057
589858 120788
384909 618678
302125 839949
50237 580146
495746 155773
47602 10885
211698 627458
413417 239396
37061 370118
768090 366074
282236 936030
270957 430055
254939 306452
616874 401374
193247 125570
603282 314646
747985 281474
154996 856029
11667 945776
746675 73660
874992 216770
437009 319705
436252 169696
622052 271491
270761 332851
728581 658036
577017 73735
617326 122926
162068 800181
767976 217826
783581 176155
841550 858903
473624 733848
841356 962282
780451 797350
990068 179726
947460 980929
3968 613002
41199 594534
978970 229602
272256 363725
26658 948977
361669 524467
283044 805170
487616 839270
292092 744840
578788 422341
279415 896847
572571 973908
368977 969296
230725 692843
713193 962580
841047 397217
30422 436014
104816 204139
401581 604061
319033 878728
610682 320738
206808 943090
295333 809751
293420 599516
416483 955950
532337 675382
721147 429825
666943 512853
856150 336938
904362 890779
206712 282935
218435 170026
283032 837146
923076 502930
353630 436887
189289 145939
907973 342579
448401 348941
362330 126820
561756 645727
163913 562768
223213 228061
975689 127791
92874 94534
178503 44703
546706 79375
462724 403524
276080 617385
96976 293138
274068 359063
753336 984162
345351 846267
360037 959639
360718 375883
578330 739536
894997 173298
687640 587195
954032 828640
762324 840309
204345 217862
966794 750612
417382 250564
876114 290788
24069 633955
662880 649946
852589 329564
397465 281488
259384 874007
296308 955146
669637 344150
338509 270877
805544 629918
758069 330280
102873 382223
344863 365236
447467 920742
635746 318068
364198 299203
660620 986176
404949 839724
337818 557135
334555 216734
976737 334596
247324 957756
355574 578327
812926 938292
202584 452164
56635 633123
984039 418092
506499 395163
598689 326871
540937 9447
288574 983962
642910 986816
551839 47247
883455 53452
707401 186099
391994 925296
932207 261966
88582 742512
234048 276492
377621 664951
403951 283831
523150 664143
